Film,Rotten Tomatoes critics %,Rotten Tomatoes Audience %,% gap,Budget ($million),Year,Genre,source: Rotten Tomatoes
Tangerine,97,75,22,0,2015,"comedy, drama",
Paranormal Activity ,83,56,27,0.015,2009,"horror, mystery",
Obvious Child,90,72,18,1,2014,"comedy, romance",
Grandma,92,67,25,1,2015,comedy,
The Last Exorcism,71,34,37,1.8,2010,"horror, thriller",
Kill Your Darlings,76,60,16,2,2013,"Biography, Drama, Thriller, Romance",
Winter's Bone,94,75,19,2,2010,drama,
The Diary of a Teenage Girl,94,74,20,2,2015,drama,
It Follows,97,66,31,2,2015,horror,
It Comes At Night,88,43,45,2.4,2017,,
The Babadook,98,72,26,2.5,2014,horror,
Please Give,86,64,22,3,2010,comedy,
Don Jon,81,58,23,3,2013,"Drama, Comedy, Romance",
Experimenter,86,61,25,3,2015,drama,
The Witch,91,57,34,3,2016,Horror,
Love & Friendship,98,60,38,3,2016,Drama,
Boyhood,97,81,16,4,2014,drama,
The Kids Are All Right,93,73,20,4,2010,comedy,
The Lobster,88,64,24,4.5,2016,"romance, comedy",
The Gift,92,75,17,5,2015,thriller,
Everything Must Go,75,52,23,5,2011,comedy,
Norman,88,56,32,5.2,2017,,
Magic Mike,80,60,20,7,2012,comedy,
A Serious Man ,90,67,23,7,2009,comedy,
Cyrus,81,53,28,7,2010,romance,
Extract ,63,38,25,8,2009,"comedy, crime, romance",
Mr. Turner,98,58,40,8.5,2014,"drama, biography, history",
Manchester by the Sea,95,77,18,9,2016,Drama,
Ouija: Origin of Evil,82,57,25,9,2016,Horror,
Cedar Rapids,86,59,27,10,2011,comedy,
Adventureland ,89,61,28,10,2009,"comedy, romance",
The Beguiled ,78,48,30,10,2017,,
Inside Llewyn Davis,93,74,19,11,2013,"Drama, Music",
Carol,94,73,21,12,2016,Drama,
Rachel Getting Married,84,62,22,12,2008,romance,
Arbitrage,87,62,25,12,2012,thriller,
Colossal,80,59,21,15,2017,,
Keanu,78,55,23,15,2016,Comedy,
Killing Them Softly,74,44,30,15,2012,"crime, thriller",
Solitary Man,80,49,31,15,2010,"comedy, romance",
The Shallows,78,59,19,17,2016,Drama,
Sausage Party,82,50,32,19,2016,Comedy,
Daybreakers	,67,49,18,20,2010,"action, horror",
The World's End,89,71,18,20,2013,"Action, Sci-Fi, Comedy",
Appaloosa,77,54,23,20,2008,"crime, western",
Barbershop: The Next Cut,90,67,23,20,2016,Comedy,
Ghost Town,86,60,26,20,2008,"comedy, fantasy, romance",
The American,66,38,28,20,2010,"crime, thriller",
Tinker Tailor Soldier Spy,83,65,18,21,2011,"mystery, thriller",
The Informant! ,79,43,36,22,2009,"comedy, crime",
"Hail, Caesar!",85,45,40,22,2016,Comedy,
Haywire,80,40,40,23,2012,"action, thriller",
Foxcatcher,87,66,21,24,2014,drama,
Piranha 3-D,74,43,31,24,2010,"comedy, horror",
The Grey,79,61,18,25,2012,"action, adventure  ",
Shaun the Sheep Movie,99,80,19,25,2015,animation,
Michael Clayton,90,69,21,25,2007,thriller,
Greenberg,75,42,33,25,2010,"comedy, romance",
Stop-Loss,65,27,38,25,2008,war,
W.,59,42,17,25.1,2008,"biography, history",
The Cabin in the Woods,92,74,18,30,2012,"horror, mystery, thriller",
Hope Springs,75,55,20,30,2012,"comedy, romance",
Drag Me to Hell ,92,62,30,30,2009,"horror, thriller",
The Lost City of Z,87,57,30,30,2017,,
The Master,85,61,24,32,2012,drama,
The Tree Of Life,84,60,24,32,2011,fantasy,
Walk Hard,74,57,17,35,2007,comedy,
Neighbors 2,62,44,18,35,2016,Comedy,
Nanny McPhee Returns,75,55,20,35,2010,"comedy, family, fantasy",
Captain Underpants,86,61,25,38,2017,,
Frankenweenie,87,70,17,39,2012,"animation, comedy, family",
American Hustle,93,74,19,40,2013,"Drama, History, Thriller, Crime",
Lucy,67,47,20,40,2014,"action, sci-fi, thriller",
Brüno ,68,41,27,42,2009,comedy,
Into the Woods,71,49,22,50,2014,"adventure, fantasy, comedy, family, musical",
Muppets Most Wanted,80,58,22,50,2014,"adventure, comedy, crime, family, musical",
The International ,59,37,22,50,2009,"action, crime, mystery",
Anchorman 2,75,52,23,50,2013,Comedy,
The Pirates! Band of Misfits,86,60,26,55,2012,"animation, adventure, comedy",
Contagion,84,62,22,60,2011,"sci-fi, thriller",
Duplicity ,64,37,27,60,2009,"crime, romance, thriller",
Spongebob: Sponge Out of Water,80,54,26,74,2015,animation,
Cloudy w/ Chance of Meatballs ,87,71,16,100,2009,"animation, comedy, family",
Gravity,96,80,16,100,2013,"Sci-Fi, Drama, Mystery, Thriller",
The Other Guys,78,58,20,100,2010,"action, comedy, crime",
Noah,76,41,35,125,2014,"action, adventure, drama, fantasy",
Rango,87,69,18,135,2011,"animation, adventure, comedy",
The BFG,75,57,18,140,2016,Adventure,
Ghostbusters,74,52,22,144,2016,Comedy,
Beowulf,71,50,21,150,2007,animation,
Indiana Jones IV,77,53,24,185,2008,"action, adventure,  ",
The Last Jedi,93,57,36,300,2017,"sci-fi, adventure",